{
  "content": [{
    "id": 1,
    "name": "Jackie",
    "content": "Nonsense",
    "user": {
      "id": 34,
      "first": "John",
      "last": "Doe",
      "age": 56
    }
  }, {
    "id": 2,
    "name": "Jamie",
    "content": "Sense"
  }, {
    "id": 3,
    "name": "Sad",
    "content": "Nonsense"
  }, {
    "id": 1,
    "name": "Jackie",
    "content": "Nonsense",
    "user": {
      "id": 34,
      "first": "John",
      "last": "Doe",
      "age": 56
    }
  }, {
    "id": 2,
    "name": "Jamie",
    "content": "Sense"
  }, {
    "id": 3,
    "name": "Sad",
    "content": "Nonsense"
  }, {
    "id": 1,
    "name": "Jackie",
    "content": "Nonsense",
    "user": {
      "id": 34,
      "first": "John",
      "last": "Doe",
      "age": 56
    }
  }, {
    "id": 2,
    "name": "Jamie",
    "content": "Sense"
  }, {
    "id": 3,
    "name": "Sad",
    "content": "Nonsense"
  }],
  "pageable": {
    "sort": {
      "sorted": false,
      "unsorted": true
    },
    "offset": 9,
    "pageNumber": 1,
    "pageSize": 9,
    "paged": true,
    "unpaged": false
  },
  "totalPages": 3,
  "last": false,
  "totalElements": 23,
  "size": 9,
  "number": 1,
  "numberOfElements": 9,
  "sort": {
    "sorted": false,
    "unsorted": true
  },
  "first": false
}